\relax 
\providecommand\hyper@newdestlabel[2]{}
\providecommand\HyperFirstAtBeginDocument{\AtBeginDocument}
\HyperFirstAtBeginDocument{\ifx\hyper@anchor\@undefined
\global\let\oldcontentsline\contentsline
\gdef\contentsline#1#2#3#4{\oldcontentsline{#1}{#2}{#3}}
\global\let\oldnewlabel\newlabel
\gdef\newlabel#1#2{\newlabelxx{#1}#2}
\gdef\newlabelxx#1#2#3#4#5#6{\oldnewlabel{#1}{{#2}{#3}}}
\AtEndDocument{\ifx\hyper@anchor\@undefined
\let\contentsline\oldcontentsline
\let\newlabel\oldnewlabel
\fi}
\fi}
\global\let\hyper@last\relax 
\gdef\HyperFirstAtBeginDocument#1{#1}
\providecommand\HyField@AuxAddToFields[1]{}
\providecommand\HyField@AuxAddToCoFields[2]{}
\citation{TRECVIDF}
\citation{Yilmaz08xinfAP}
\@writefile{toc}{\contentsline {section}{\numberline {1}Introduction}{}{section.1}}
\newlabel{sec:intro}{{1}{}{Introduction}{section.1}{}}
\@writefile{toc}{\contentsline {section}{\numberline {2}The Proposed Framework}{}{section.2}}
\newlabel{sec:sin}{{2}{}{The Proposed Framework}{section.2}{}}
\@writefile{lof}{\contentsline {figure}{\numberline {1}{\ignorespaces The whole framework for semantic indexing}}{}{figure.1}}
\newlabel{fig:framework}{{1}{}{The whole framework for semantic indexing}{figure.1}{}}
\@writefile{toc}{\contentsline {subsection}{\numberline {2.1}Data Pre-processing and Feature Extraction}{}{subsection.2.1}}
\newlabel{sec:dp}{{2.1}{}{Data Pre-processing and Feature Extraction}{subsection.2.1}{}}
\@writefile{toc}{\contentsline {subsection}{\numberline {2.2}Collateral Representative Subspace Projection Modeling}{}{subsection.2.2}}
\newlabel{sec:rspm}{{2.2}{}{Collateral Representative Subspace Projection Modeling}{subsection.2.2}{}}
\@writefile{toc}{\contentsline {section}{\numberline {3}Experimental Results}{}{section.3}}
\newlabel{sec:exp}{{3}{}{Experimental Results}{section.3}{}}
\@writefile{lof}{\contentsline {figure}{\numberline {2}{\ignorespaces Run scores (dot) versus median (---) versus best (box) for \emph  {2B\_M\_A\_FIU-UM.14\_3}}}{}{figure.2}}
\newlabel{fig:fig1}{{2}{}{Run scores (dot) versus median (---) versus best (box) for \emph {2B\_M\_A\_FIU-UM.14\_3}}{figure.2}{}}
\bibstyle{latex8}
\bibdata{latex8}
\bibcite{TRECVIDF}{1}
\bibcite{Yilmaz08xinfAP}{2}
\@writefile{lof}{\contentsline {figure}{\numberline {3}{\ignorespaces Run scores (dot) versus median (---) versus best (box) for \emph  {2B\_M\_A\_FIU-UM.14\_4}}}{}{figure.3}}
\newlabel{fig:fig2}{{3}{}{Run scores (dot) versus median (---) versus best (box) for \emph {2B\_M\_A\_FIU-UM.14\_4}}{figure.3}{}}
\@writefile{lot}{\contentsline {table}{\numberline {1}{\ignorespaces The MAP values at first $n$ shots for all 2 runs}}{}{table.1}}
\newlabel{tab:tab1}{{1}{}{Experimental Results}{table.1}{}}
\@writefile{lot}{\contentsline {table}{\numberline {2}{\ignorespaces Inferred true shots and mean xinfAP}}{}{table.2}}
\newlabel{tab:tab2}{{2}{}{Experimental Results}{table.2}{}}
\@writefile{toc}{\contentsline {section}{\numberline {4}Conclusion and Future Work}{}{section.4}}
\newlabel{sec:conclusion}{{4}{}{Conclusion and Future Work}{section.4}{}}
